-------------------------------------------------------------------------------
Test set: com.rectangle.Utility.RectangleCheckerTest
-------------------------------------------------------------------------------
Tests run: 5, Failures: 0, Errors: 0, Skipped: 0, Time elapsed: 0 s - in com.rectangle.Utility.RectangleCheckerTest
